# Blender v2.79 (sub 0) OBJ File: 'katze.blend'
# www.blender.org
mtllib katze.mtl
o Icosphere
v 0.757161 -0.626094 0.000000
v 0.477098 -0.762889 -0.346628
v 1.086756 0.000000 0.309013
v 0.587786 0.000000 0.809017
v -0.587786 -0.000000 0.809017
v -0.587786 -0.000000 -0.809017
v 0.688189 0.525736 0.499997
v -0.262869 0.525738 -0.809012
v 0.162456 1.325653 0.704304
v -0.425323 0.850654 -0.309011
v 0.162456 1.325653 -0.703308
v -0.276388 -0.447220 0.850649
v 0.721430 -0.444078 0.523146
v -0.000000 -0.940066 -0.000000
v -0.791308 -0.486476 0.249998
v 1.058441 0.223608 -0.154506
v 0.276388 0.447220 0.850649
v -0.655696 0.223610 0.667371
v -0.276388 -0.447220 -0.850649
v 0.721430 -0.444078 -0.523146
v 0.276388 0.447220 -0.850649
v 0.818180 0.370872 -0.334179
v 0.219422 0.648937 0.675322
v 0.000000 1.000000 0.000000
v -0.723607 0.447220 0.525725
v -0.723607 0.447220 -0.525725
v 0.219422 0.648937 -0.675322
v -0.178873 -0.772379 0.550736
v -0.710078 -0.648934 0.000000
v -0.178873 -0.772379 -0.550736
v -0.791308 -0.486476 -0.249998
v 1.058441 0.223608 0.154506
v 0.837853 -0.083529 -0.486587
v -0.655696 0.223610 -0.667371
v 0.081228 0.925327 0.249998
v 0.580666 0.817758 -0.006107
v -0.425323 0.850654 0.309011
v 0.081228 0.925327 -0.249998
v 0.344093 0.850653 -0.249998
v 0.681323 0.525904 -0.505605
v 0.425322 0.688195 -0.499996
v -0.131434 0.850654 -0.404503
v -0.050207 0.688196 -0.654503
v -0.131434 0.850654 0.404503
v -0.050207 0.688196 0.654503
v 0.344093 0.850653 0.249998
v 0.425322 0.688195 0.499996
v 0.587786 0.000000 -0.809017
v -0.262869 0.525738 0.809012
v 0.000000 0.000000 1.000000
v 0.837853 -0.083529 0.486587
v 0.825666 0.399169 0.299173
v 0.000000 -0.000000 -1.000000
v -0.769422 0.000000 -0.559015
v -0.819624 -0.262868 -0.404505
v -0.769422 0.000000 0.559015
v -0.819624 -0.262868 0.404505
v 1.113404 0.000410 -0.275347
v 1.036551 -0.262868 0.154506
v 1.036551 -0.262868 -0.154506
v 0.252258 -0.582427 -0.776357
v -0.660412 -0.582426 -0.479815
v -0.525730 -0.790718 0.000000
v -0.660412 -0.582426 0.479815
v 0.475114 -0.768049 0.339494
v 0.252258 -0.582427 0.776357
v -0.723607 0.447220 0.525725
v -0.850648 0.525736 0.000000
v -0.425323 0.850654 -0.309011
v -0.791308 -0.486476 0.249998
v -0.894426 -0.447216 -0.000000
v -0.655696 0.223610 0.667371
v -0.723607 0.447220 -0.525725
v -0.710078 -0.648934 0.000000
v -0.791308 -0.486476 -0.249998
v -0.655696 0.223610 -0.667371
v -0.951058 0.000000 -0.309013
v -0.425323 0.850654 0.309011
v -0.951058 -0.000000 0.309013
v -0.769422 0.000000 -0.559015
v -0.819624 -0.262868 -0.404505
v -0.769422 0.000000 0.559015
v -0.819624 -0.262868 0.404505
vn 0.8726 0.4873 -0.0321
vn 0.2942 0.9426 -0.1582
vn 0.4870 0.7933 -0.3654
vn 0.4066 0.6631 -0.6284
vn -0.5794 0.6596 0.4787
vn -0.8598 0.2529 -0.4437
vn -0.4713 0.6617 -0.5831
vn 0.0385 0.6617 0.7488
vn 0.2035 0.7162 -0.6675
vn 0.9186 0.3927 -0.0433
vn 0.7908 0.5876 0.1710
vn 0.6950 0.4671 -0.5466
vn 0.5246 0.2910 -0.8000
vn -0.5346 0.3304 -0.7779
vn -0.5346 0.3304 0.7779
vn -0.3035 0.1876 0.9342
vn 0.6933 0.4670 0.5488
vn 0.3066 0.1256 -0.9435
vn 0.0447 -0.3412 -0.9389
vn -0.8026 0.1256 -0.5831
vn -0.8691 -0.3509 -0.3485
vn -0.5880 -0.3412 0.7333
vn 0.5225 -0.3447 0.7798
vn 0.9867 0.1561 0.0451
vn 0.9762 -0.2125 0.0444
vn 0.7013 -0.6571 -0.2765
vn 0.1526 -0.8802 -0.4495
vn -0.3875 -0.8804 -0.2734
vn -0.6007 -0.7811 -0.1704
vn -0.6007 -0.7811 0.1704
vn 0.4929 -0.6814 0.5410
vn 0.1515 -0.8796 0.4510
vn -0.0746 -0.6881 0.7218
vn 0.3443 -0.9389 -0.0061
vn 0.4443 -0.8959 -0.0055
vn 0.6797 -0.6771 -0.2820
vn -0.3639 -0.6881 0.6277
vn -0.3875 -0.8804 0.2734
vn -0.7558 -0.6334 0.1660
vn -0.7558 -0.6334 -0.1660
vn -0.3639 -0.6881 -0.6277
vn -0.0746 -0.6881 -0.7218
vn 0.4935 -0.6791 -0.5434
vn 0.6229 -0.4692 -0.6261
vn 0.7909 -0.1966 -0.5794
vn 0.9599 -0.2802 0.0000
vn 0.7926 -0.6097 0.0000
vn 0.6021 0.7984 0.0000
vn 0.9710 0.2391 0.0000
vn 0.3011 -0.2254 0.9266
vn 0.3066 0.1256 0.9435
vn -0.7947 -0.1876 0.5773
vn -0.7660 -0.2412 0.5958
vn -0.8026 0.1256 0.5831
vn -0.7947 -0.1876 -0.5773
vn -0.7660 -0.2412 -0.5958
vn 0.3011 -0.2254 -0.9266
vn 0.8547 0.1318 0.5020
vn 0.7965 0.2362 0.5566
vn 0.4727 0.3293 0.8174
vn 0.5746 0.3304 0.7488
vn -0.0247 0.3304 0.9435
vn -0.3035 0.1876 -0.9342
vn -0.0247 0.3304 -0.9435
vn 0.5742 0.3301 -0.7492
vn 0.8357 0.1553 -0.5268
vn 0.7975 0.2226 -0.5608
vn 0.5457 0.8368 -0.0438
vn 0.4945 0.7934 0.3549
vn 0.4916 0.7954 0.3545
vn 0.2680 0.9435 0.1947
vn 0.2974 0.9423 0.1537
vn -0.0841 -0.0497 0.9952
vn -0.8601 0.2523 0.4434
vn -0.1876 0.7947 0.5773
vn -0.1024 0.9435 0.3151
vn -0.5792 0.6602 -0.4782
vn -0.3313 0.9435 0.0000
vn -0.1876 0.7947 -0.5773
vn -0.1024 0.9435 -0.3151
vn 0.6456 0.0228 -0.7633
vn 0.4089 0.6617 -0.6284
vn 0.9187 0.3926 0.0433
vn 0.4951 0.7932 -0.3546
vn 0.2680 0.9435 -0.1947
vn 0.2033 0.7155 0.6683
vn 0.8199 0.5507 -0.1565
vn -0.0839 -0.0482 -0.9953
vn 0.0385 0.6617 -0.7488
vn -0.4713 0.6617 0.5831
vn 0.6458 0.0217 0.7632
vn 0.4089 0.6617 0.6284
vn 0.7543 -0.1795 -0.6315
vn -0.3066 -0.1256 -0.9435
vn -0.3066 -0.1256 0.9435
vn 0.7543 -0.1795 0.6315
vn 0.5225 -0.3447 -0.7798
vn -0.5880 -0.3412 -0.7333
vn -0.8691 -0.3509 0.3485
vn 0.0447 -0.3412 0.9389
vn 0.6099 -0.4849 0.6268
vn 0.7909 -0.1966 0.5794
vn 0.7013 -0.6571 0.2765
vn 0.1141 -0.9395 -0.3231
vn -0.2677 -0.9425 -0.2000
vn -0.2677 -0.9425 0.2000
vn 0.6800 -0.6768 0.2819
vn 0.1103 -0.9403 0.3221
vn -0.7002 0.6617 0.2680
vn -0.7240 -0.6617 0.1947
vn -0.7240 -0.6617 -0.1947
vn -0.8897 -0.3304 -0.3151
vn -0.9050 0.3304 0.2680
vn -0.9822 0.1876 0.0000
vn -0.9050 0.3304 -0.2680
vn -0.6071 0.7947 0.0000
vn -0.7002 0.6617 -0.2680
vn -0.9921 -0.1256 -0.0000
vn -0.8897 -0.3304 0.3151
usemtl None
s off
f 52//1 22//1 36//1
f 36//2 39//2 24//2
f 36//3 40//3 39//3
f 40//4 21//4 41//4
f 11//5 42//5 38//5
f 11//6 43//6 42//6
f 8//7 26//7 10//7
f 49//8 17//8 45//8
f 9//9 46//9 35//9
f 9//10 47//10 46//10
f 7//11 52//11 36//11
f 58//12 22//12 16//12
f 58//13 33//13 22//13
f 6//14 34//14 8//14
f 5//15 49//15 18//15
f 5//16 50//16 49//16
f 3//17 32//17 52//17
f 48//18 53//18 21//18
f 61//19 19//19 53//19
f 6//20 54//20 34//20
f 62//21 31//21 55//21
f 64//22 12//22 5//22
f 66//23 13//23 4//23
f 3//24 58//24 32//24
f 3//25 59//25 58//25
f 1//26 20//26 60//26
f 2//27 30//27 61//27
f 30//28 63//28 62//28
f 63//29 29//29 62//29
f 63//30 64//30 29//30
f 66//31 65//31 13//31
f 28//32 65//32 66//32
f 28//33 66//33 12//33
f 65//34 14//34 2//34
f 1//35 65//35 2//35
f 20//36 1//36 2//36
f 64//37 28//37 12//37
f 63//38 28//38 64//38
f 29//39 64//39 15//39
f 62//40 29//40 31//40
f 30//41 62//41 19//41
f 61//42 30//42 19//42
f 2//43 61//43 20//43
f 60//44 33//44 58//44
f 60//45 20//45 33//45
f 58//46 59//46 60//46
f 59//47 1//47 60//47
f 32//48 16//48 52//48
f 32//49 58//49 16//49
f 50//50 66//50 4//50
f 50//51 4//51 17//51
f 56//52 57//52 5//52
f 57//53 64//53 5//53
f 56//54 5//54 18//54
f 54//55 6//55 55//55
f 6//56 62//56 55//56
f 48//57 61//57 53//57
f 4//58 52//58 7//58
f 4//59 51//59 52//59
f 51//60 3//60 52//60
f 4//61 7//61 17//61
f 50//62 17//62 49//62
f 18//15 49//15 25//15
f 8//14 34//14 26//14
f 53//63 6//63 8//63
f 53//64 8//64 21//64
f 48//65 21//65 40//65
f 22//66 48//66 40//66
f 22//67 33//67 48//67
f 16//68 22//68 52//68
f 46//69 47//69 36//69
f 47//70 7//70 36//70
f 35//71 46//71 24//71
f 46//72 36//72 24//72
f 45//73 23//73 9//73
f 45//8 17//8 23//8
f 44//74 45//74 9//74
f 44//75 37//75 45//75
f 37//75 49//75 45//75
f 37//76 35//76 24//76
f 37//76 44//76 35//76
f 44//77 9//77 35//77
f 24//78 10//78 37//78
f 42//79 43//79 10//79
f 43//79 8//79 10//79
f 38//80 42//80 24//80
f 42//80 10//80 24//80
f 41//81 27//81 11//81
f 41//82 21//82 27//82
f 39//83 41//83 11//83
f 39//84 40//84 41//84
f 24//85 39//85 38//85
f 39//86 11//86 38//86
f 36//87 22//87 40//87
f 27//88 43//88 11//88
f 27//89 21//89 43//89
f 21//89 8//89 43//89
f 25//90 49//90 37//90
f 23//91 47//91 9//91
f 23//92 17//92 47//92
f 17//92 7//92 47//92
f 20//93 48//93 33//93
f 19//94 6//94 53//94
f 12//95 50//95 5//95
f 13//96 51//96 4//96
f 20//97 61//97 48//97
f 19//98 62//98 6//98
f 15//99 64//99 57//99
f 12//100 66//100 50//100
f 51//101 59//101 3//101
f 51//102 13//102 59//102
f 13//103 1//103 59//103
f 14//104 30//104 2//104
f 30//105 14//105 63//105
f 14//106 28//106 63//106
f 13//107 65//107 1//107
f 14//108 65//108 28//108
f 68//109 67//109 78//109
f 79//54 82//54 67//54
f 79//52 83//52 82//52
f 74//110 70//110 71//110
f 74//111 71//111 75//111
f 67//54 82//54 72//54
f 81//112 75//112 77//112
f 75//112 71//112 77//112
f 80//55 81//55 77//55
f 76//20 80//20 73//20
f 80//20 77//20 73//20
f 79//113 67//113 68//113
f 77//114 79//114 68//114
f 77//115 68//115 73//115
f 69//116 68//116 78//116
f 73//117 68//117 69//117
f 71//118 79//118 77//118
f 71//119 83//119 79//119
f 71//119 70//119 83//119
